//VAR
///PFNUM 6,1,0,1
///SHARE 100,100,100,100,100,128,128,0
///B
0,0,0,0,0,0,0,0,0,0
1,0,0,0,0,0,0,0,0,0
0,0,0,0,0,0,0,0,0,0
0,0,0,0,0,0,0,0,0,0
0,0,0,0,0,0,0,0,0,0
0,0,0,0,0,0,0,0,0,0
0,0,0,0,0,0,0,0,0,0
0,0,0,0,0,0,0,0,0,0
0,0,0,0,0,0,0,0,0,0
0,0,0,0,0,0,0,0,0,1
///I
0,0,0,0,0,0,0,0,0,0
0,0,0,0,0,0,0,0,0,0
0,0,0,0,0,0,0,0,0,0
0,0,0,0,0,0,0,0,0,0
0,0,0,0,0,0,0,0,0,0
0,0,0,0,0,0,0,0,0,0
0,0,0,0,0,0,0,0,0,0
0,0,0,0,0,0,0,0,0,0
0,0,0,0,0,0,0,0,0,0
0,0,0,0,0,0,0,0,0,0
///D
39894,97500,0,0,0,0,0,0,0,0
0,0,0,-921007,898706,-22672,0,0,0,0
0,0,0,0,0,0,0,0,0,0
0,0,0,0,0,0,0,0,0,0
0,0,0,0,0,0,0,0,0,0
0,0,0,0,0,0,0,0,0,0
0,0,0,0,0,0,0,0,0,0
0,0,0,0,0,0,0,0,0,0
0,0,0,0,0,0,0,0,0,0
0,0,0,0,0,0,0,0,0,0
///R
 7.050000E+05, 8.200000E+05,0,0,0,0,0,0,0,0
0,0,0,0,0,0,0,0,0,0
0,0,0,0,0,0,0,0,0,0
0,0,0,0,0,0,0,0,0,0
0,0,0,0,0,0,0,0,0,0
0,0,0,0,0,0,0,0,0,0
0,0,0,0,0,0,0,0,0,0
0,0,0,0,0,0,0,0,0,0
0,0,0,0,0,0,0,0,0,0
0,0,0,0,0,0,0,0,0,0
///S
Attenz.Movimento
del.Robot.
Sei.Sicuro.?.
Premere.
Muovi.o.No.!.
_MUOVI_



_ NO _


























































































///P
"UNUSED"
"RECTAN"0,1,3,001000000000000000000000,0,19,0.000,0.000,0.000,136.0733,89.8217,-134.0751,0.0000,0.0000
"RECTAN"0,2,3,000000000000000000000000,0,19,0.000,0.000,0.000,-39.3443,89.6654,50.7258,0.0000,0.0000
"RECTAN"0,3,3,000000000000000000000000,0,19,0.000,0.000,0.000,-53.2632,89.7313,36.8023,0.0000,0.0000
"RECTAN"0,4,3,001000000000000000000000,0,19,0.000,0.000,0.000,-92.1007,89.8706,-2.2672,0.0000,0.0000
"RECTAN"0,5,3,001000000000000000000000,0,19,-0.770,-1.223,-151.323,-0.0783,-0.0869,-0.0435,0.0000,0.0000
"RECTAN"0,6,3,001000000000000000000000,0,19,0.196,0.747,-150.937,0.2955,-0.3400,0.0955,0.0000,0.0000
"RECTAN"0,7,3,000000000000000000000000,0,19,0.000,0.000,0.000,-0.0254,-0.1204,-0.0049,0.0000,0.0000
"RECTAN"0,8,3,000000000000000000000000,0,19,0.000,-0.001,0.000,0.0094,-0.0065,0.0171,0.0000,0.0000
"RECTAN"0,9,3,001000000000000000000000,0,19,2.004,-0.024,0.002,0.0007,0.0018,179.9998,0.0000,0.0000
"RECTAN"0,10,3,000010000000000000000000,0,19,0.000,0.000,0.000,-0.0042,-0.0151,0.0078,0.0000,0.0000
"RECTAN"0,11,3,001000000000000000000000,0,19,0.000,0.000,0.000,-0.3910,3.1247,179.7718,0.0000,0.0000
"RECTAN"0,12,3,000000000000000000000000,0,19,308.846,-5388.370,-41.225,0.0602,-1.7387,-0.2779,0.0000,0.0000
"RECTAN"0,0,3,001000000000000000000000,0,17,-1044.449,1559.174,-671.068,0.0582,0.0350,89.7285,0.0000,0.0000
"RECTAN"0,0,3,001000000000000000000000,0,17,-1044.449,1559.174,-671.068,0.0582,0.0350,89.7285,0.0000,0.0000
"RECTAN"0,13,1,001010000000000000000000,0,19,0.000,0.000,56.000,179.9209,0.4584,0.0085,0.0000,0.0000
"RECTAN"0,14,1,001000000000000000000000,0,19,0.000,0.000,41.000,0.6765,0.4652,0.1750,0.0000,0.0000
"RECTAN"0,15,2,001000000000000000000000,0,19,0.000,0.000,56.000,-179.9901,-0.0083,0.1551,0.0000,0.0000
"RECTAN"0,16,2,001000000000000000000000,0,19,0.000,0.000,41.000,0.0003,0.0053,0.0121,0.0000,0.0000
"UNUSED"
"RECTAN"0,0,0,000000000000000000000000,0,17,1097.657,1525.373,-573.495,-156.8594,-89.6394,-112.7334,0.0000,0.0000
"RECTAN"0,0,0,000000000000000000000000,0,17,1184.388,1507.348,-573.390,143.3787,89.7812,53.5311,0.0000,0.0000
"UNUSED"
"UNUSED"
"UNUSED"
"UNUSED"
"UNUSED"
"UNUSED"
"UNUSED"
"UNUSED"
"RECTAN"0,17,3,001000000000000000000000,0,19,0.241,0.110,39.894,-179.9881,-0.0214,-0.0078,0.0000,0.0000
"RECTAN"0,18,3,001000000000000000000000,0,19,-0.195,0.122,33.284,-179.9720,0.0066,-0.0131,0.0000,0.0000
"UNUSED"
"UNUSED"
"UNUSED"
"UNUSED"
"UNUSED"
"UNUSED"
"UNUSED"
"UNUSED"
"UNUSED"
"UNUSED"
"UNUSED"
"UNUSED"
"UNUSED"
"UNUSED"
"UNUSED"
"UNUSED"
"UNUSED"
"UNUSED"
"UNUSED"
"UNUSED"
"UNUSED"
"UNUSED"
"UNUSED"
"UNUSED"
"UNUSED"
"UNUSED"
"UNUSED"
"UNUSED"
"UNUSED"
"UNUSED"
"UNUSED"
"UNUSED"
"UNUSED"
"UNUSED"
"UNUSED"
"UNUSED"
"UNUSED"
"UNUSED"
"UNUSED"
"UNUSED"
"UNUSED"
"UNUSED"
"UNUSED"
"UNUSED"
"UNUSED"
"UNUSED"
"UNUSED"
"UNUSED"
"UNUSED"
"UNUSED"
"UNUSED"
"UNUSED"
"UNUSED"
"UNUSED"
"UNUSED"
"UNUSED"
"UNUSED"
"UNUSED"
"UNUSED"
"UNUSED"
"UNUSED"
"UNUSED"
"UNUSED"
"UNUSED"
"UNUSED"
"UNUSED"
"UNUSED"
"UNUSED"
"PULSE"0,0,0,000000000000000000000000,0,0,-82,5443,8082,0,-367176,277276,0,0
"RECTAN"0,0,3,001000000000000000000000,0,16,800.007,-0.006,400.010,0.0992,89.9989,0.0000,0.0000,0.0000
"UNUSED"
"UNUSED"
"UNUSED"
"UNUSED"
"UNUSED"
"UNUSED"
"UNUSED"
"UNUSED"
"UNUSED"
"UNUSED"
"UNUSED"
"UNUSED"
"UNUSED"
"UNUSED"
"UNUSED"
"UNUSED"
"UNUSED"
"UNUSED"
"RECTAN"0,0,3,001000000000000000000000,0,17,1530.779,-1115.636,-21.882,-0.0717,-0.1037,-90.0008,0.0000,0.0000
"RECTAN"0,0,3,001000000000000000000000,0,17,1530.779,-2315.636,-21.882,-0.0717,-0.1037,-90.0008,0.0000,0.0000
"RECTAN"0,0,3,001000000000000000000000,0,17,1530.779,-2315.636,-171.882,-0.0717,-0.1037,-90.0008,0.0000,0.0000
"RECTAN"0,0,3,001000000000000000000000,0,17,1530.779,-2315.636,-269.882,-0.0717,-0.1037,-90.0008,0.0000,0.0000
"RECTAN"0,0,3,001000000000000000000000,0,17,2442.817,-179.848,536.151,175.3178,89.9541,-4.8648,0.0000,0.0000
"RECTAN"0,0,3,000000000000000000000000,0,17,-402.484,-2621.323,-305.022,0.0635,-1.7249,-90.3006,0.0000,0.0000
"UNUSED"
"UNUSED"
///BP
"UNUSED"
"RECTAN"0,1,0,000000000000000000000000,0,19,0.000,0.000,0.000,0.0000,0.0000,0.0000,0.0000,0.0000
"RECTAN"0,2,0,000000000000000000000000,0,19,0.000,0.000,0.000,0.0000,0.0000,0.0000,0.0000,0.0000
"RECTAN"0,3,0,000000000000000000000000,0,19,0.000,0.000,0.000,0.0000,0.0000,0.0000,0.0000,0.0000
"RECTAN"0,4,0,000000000000000000000000,0,19,-50.000,0.000,0.000,0.0000,0.0000,0.0000,0.0000,0.0000
"RECTAN"0,5,0,000000000000000000000000,0,19,0.000,0.000,0.000,0.0000,0.0000,0.0000,0.0000,0.0000
"RECTAN"0,6,0,000000000000000000000000,0,19,0.000,0.000,0.000,0.0000,0.0000,0.0000,0.0000,0.0000
"RECTAN"0,7,0,000000000000000000000000,0,19,0.000,0.000,0.000,0.0000,0.0000,0.0000,0.0000,0.0000
"RECTAN"0,8,0,000000000000000000000000,0,19,0.000,0.000,0.000,0.0000,0.0000,0.0000,0.0000,0.0000
"RECTAN"0,9,0,000000000000000000000000,0,19,0.000,0.000,0.000,0.0000,0.0000,0.0000,0.0000,0.0000
"RECTAN"0,10,0,000000000000000000000000,0,19,0.000,0.000,0.000,0.0000,0.0000,0.0000,0.0000,0.0000
"RECTAN"0,11,0,000000000000000000000000,0,19,0.000,0.000,0.000,0.0000,0.0000,0.0000,0.0000,0.0000
"RECTAN"0,12,0,000000000000000000000000,0,19,-3450.000,0.000,0.000,0.0000,0.0000,0.0000,0.0000,0.0000
"RECTAN"0,0,0,000000000000000000000000,0,17,1279.998,0.000,0.000,0.0000,0.0000,0.0000,0.0000,0.0000
"RECTAN"0,0,0,000000000000000000000000,0,17,2000.001,0.000,0.000,0.0000,0.0000,0.0000,0.0000,0.0000
"RECTAN"0,13,0,000000000000000000000000,0,19,0.000,0.000,0.000,0.0000,0.0000,0.0000,0.0000,0.0000
"RECTAN"0,14,0,000000000000000000000000,0,19,0.000,0.000,0.000,0.0000,0.0000,0.0000,0.0000,0.0000
"RECTAN"0,15,0,000000000000000000000000,0,19,0.000,0.000,0.000,0.0000,0.0000,0.0000,0.0000,0.0000
"RECTAN"0,16,0,000000000000000000000000,0,19,0.000,0.000,0.000,0.0000,0.0000,0.0000,0.0000,0.0000
"UNUSED"
"RECTAN"0,0,0,000000000000000000000000,0,17,3999.999,0.000,0.000,0.0000,0.0000,0.0000,0.0000,0.0000
"RECTAN"0,0,0,000000000000000000000000,0,17,4999.999,0.000,0.000,0.0000,0.0000,0.0000,0.0000,0.0000
"UNUSED"
"UNUSED"
"UNUSED"
"UNUSED"
"UNUSED"
"UNUSED"
"UNUSED"
"UNUSED"
"RECTAN"0,17,0,000000000000000000000000,0,19,0.000,0.000,0.000,0.0000,0.0000,0.0000,0.0000,0.0000
"RECTAN"0,18,0,000000000000000000000000,0,19,0.000,0.000,0.000,0.0000,0.0000,0.0000,0.0000,0.0000
"UNUSED"
"UNUSED"
"UNUSED"
"UNUSED"
"UNUSED"
"UNUSED"
"UNUSED"
"UNUSED"
"UNUSED"
"UNUSED"
"UNUSED"
"UNUSED"
"UNUSED"
"UNUSED"
"UNUSED"
"UNUSED"
"UNUSED"
"UNUSED"
"UNUSED"
"UNUSED"
"UNUSED"
"UNUSED"
"UNUSED"
"UNUSED"
"UNUSED"
"UNUSED"
"UNUSED"
"UNUSED"
"UNUSED"
"UNUSED"
"UNUSED"
"UNUSED"
"UNUSED"
"UNUSED"
"UNUSED"
"UNUSED"
"UNUSED"
"UNUSED"
"UNUSED"
"UNUSED"
"UNUSED"
"UNUSED"
"UNUSED"
"UNUSED"
"UNUSED"
"UNUSED"
"UNUSED"
"UNUSED"
"UNUSED"
"UNUSED"
"UNUSED"
"UNUSED"
"UNUSED"
"UNUSED"
"UNUSED"
"UNUSED"
"UNUSED"
"UNUSED"
"UNUSED"
"UNUSED"
"UNUSED"
"UNUSED"
"UNUSED"
"UNUSED"
"UNUSED"
"UNUSED"
"UNUSED"
"UNUSED"
"PULSE"0,0,0,000000000000000000000000,0,0,0,0,0,0,0,0,0,0
"RECTAN"0,0,0,000000000000000000000000,0,16,1000.000,0.000,0.000,0.0000,0.0000,0.0000,0.0000,0.0000
"UNUSED"
"UNUSED"
"UNUSED"
"UNUSED"
"UNUSED"
"UNUSED"
"UNUSED"
"UNUSED"
"UNUSED"
"UNUSED"
"UNUSED"
"UNUSED"
"UNUSED"
"UNUSED"
"UNUSED"
"UNUSED"
"UNUSED"
"UNUSED"
"RECTAN"0,0,0,000000000000000000000000,0,17,1200.001,0.000,0.000,0.0000,0.0000,0.0000,0.0000,0.0000
"RECTAN"0,0,0,000000000000000000000000,0,17,1200.001,0.000,0.000,0.0000,0.0000,0.0000,0.0000,0.0000
"RECTAN"0,0,0,000000000000000000000000,0,17,1200.001,0.000,0.000,0.0000,0.0000,0.0000,0.0000,0.0000
"RECTAN"0,0,0,000000000000000000000000,0,17,1200.001,0.000,0.000,0.0000,0.0000,0.0000,0.0000,0.0000
"RECTAN"0,0,0,000000000000000000000000,0,17,10999.999,0.000,0.000,0.0000,0.0000,0.0000,0.0000,0.0000
"RECTAN"0,0,0,000000000000000000000000,0,17,49.998,0.000,0.000,0.0000,0.0000,0.0000,0.0000,0.0000
"UNUSED"
"UNUSED"
///EX
